{
  "row": 34,
  "need": "GDP、进出口、失业率、旅游业数据等",
  "status": "ok",
  "object": "宏观指标",
  "entities": [
    "宏观指标"
  ],
  "selected_fields": [
    "GDP",
    "进出口",
    "失业率",
    "旅游业数据"
  ],
  "ignored_selected_fields": [],
  "source_urls": [
    "https://www.censtatd.gov.hk/en/scode200.html",
    "https://www.discoverhongkong.com/eng/hktb/newsroom/tourism-statistics.html",
    "https://api.worldbank.org/v2/country/HKG/indicator/NY.GDP.MKTP.CD?format=json&per_page=5",
    "https://www.stats.gov.cn/english/"
  ],
  "attempted_urls": [
    "https://www.discoverhongkong.com/eng/hktb/newsroom/tourism-statistics.html",
    "https://www.censtatd.gov.hk/en/scode200.html",
    "https://api.worldbank.org/v2/country/HKG/indicator/NY.GDP.MKTP.CD?format=json&per_page=5",
    "https://www.stats.gov.cn/english/"
  ],
  "extracted": {
    "GDP": "lease click \"I accept.\" You can manage your settings anytime. I accept Manage my cookies Cookie Setting Save settings SOURCE: https://api.worldbank.org/v2/country/HKG/indicator/NY.GDP.MKTP.CD?format=json&per_page=5 [{\"pa",
    "进出口": "Statistics Follow Us Now! Subscribe to our newsletter to receive exclusive updates and offers in your inbox! Subscribe Connect With Us Relevant Websites Discover Hong Kong Travel Trade Meetings & Exhibitions Brand Hong K",
    "失业率": "SOURCE: https://www.censtatd.gov.hk/en/scode200.html Labour Force, Employment and Unemployment Labour Force, Employment and Unemployment Overview Interactive Statistics Press Releases Tables Reports Datasets Feature Arti",
    "旅游业数据": "n Concepts and Methods section Statistical Classifications Statistical Classifications section Glossary Glossary section SOURCE: https://www.discoverhongkong.com/eng/hktb/newsroom/tourism-statistics.html Tourism Statisti"
  },
  "missing_fields": [],
  "entity_results": [
    {
      "entity": "宏观指标",
      "status": "ok",
      "source_urls": [
        "https://www.censtatd.gov.hk/en/scode200.html",
        "https://www.discoverhongkong.com/eng/hktb/newsroom/tourism-statistics.html",
        "https://api.worldbank.org/v2/country/HKG/indicator/NY.GDP.MKTP.CD?format=json&per_page=5",
        "https://www.stats.gov.cn/english/"
      ],
      "extracted": {
        "GDP": "lease click \"I accept.\" You can manage your settings anytime. I accept Manage my cookies Cookie Setting Save settings SOURCE: https://api.worldbank.org/v2/country/HKG/indicator/NY.GDP.MKTP.CD?format=json&per_page=5 [{\"pa",
        "进出口": "Statistics Follow Us Now! Subscribe to our newsletter to receive exclusive updates and offers in your inbox! Subscribe Connect With Us Relevant Websites Discover Hong Kong Travel Trade Meetings & Exhibitions Brand Hong K",
        "失业率": "SOURCE: https://www.censtatd.gov.hk/en/scode200.html Labour Force, Employment and Unemployment Labour Force, Employment and Unemployment Overview Interactive Statistics Press Releases Tables Reports Datasets Feature Arti",
        "旅游业数据": "n Concepts and Methods section Statistical Classifications Statistical Classifications section Glossary Glossary section SOURCE: https://www.discoverhongkong.com/eng/hktb/newsroom/tourism-statistics.html Tourism Statisti"
      },
      "missing_fields": [],
      "raw_records": [
        {
          "row": 34,
          "url": "https://www.censtatd.gov.hk/en/scode200.html",
          "final_url": "https://www.censtatd.gov.hk/en/scode200.html",
          "status": 200,
          "content_type": "text/html",
          "title": "Labour Force, Employment and Unemployment",
          "bytes": 26041,
          "elapsed_seconds": 0.641,
          "method": "httpx",
          "text_sample": "Labour Force, Employment and Unemployment Labour Force, Employment and Unemployment Overview Interactive Statistics Press Releases Tables Reports Datasets Feature Articles Statistics in Other Sites Concepts and Methods Overview overview section ( ) ( ) ( ) ( ) Distribution of Composite Employment Estimates by major industry sector (%) (%) (%) Interactive Statistics Interactive Statistics section Press Releases Press Release section Latest Release Date Upcoming Release Date Tables Tables & Charts section Reports Reports section Title Latest Issue Release Date File Download Datasets Datasets section Feature Articles Feature Articles section Statistics in Other Sites Statistics in Other Sites section Study on Earnings Mobility (Labour and Welfare Bureau) Concepts and Methods Concepts and Methods section Feature Articles on Concepts and Methods Feature Articles on Concepts and Methods sectio",
          "evidence_path": "evidence_cache/6bac0b780c2c56d7e32eaa63a2cebccf7750f9b100ec3a93175461ff20930bd7.txt",
          "content_hash": "6bac0b780c2c56d7e32eaa63a2cebccf7750f9b100ec3a93175461ff20930bd7",
          "error": "",
          "fetch_attempts": [
            {
              "url": "https://www.censtatd.gov.hk/en/scode200.html",
              "final_url": "https://www.censtatd.gov.hk/en/scode200.html",
              "status": 200,
              "method": "httpx",
              "bytes": 26041,
              "text_chars": 1069,
              "title": "Labour Force, Employment and Unemployment",
              "error": "",
              "meta_refresh_url": ""
            }
          ],
          "source_policy": "allow",
          "source_type": "government_statistics",
          "jurisdiction": "HK",
          "tos_status": "public_information",
          "robots_status": "checked",
          "robots_allowed": true,
          "skip_reason": "",
          "entity_hits": [
            "宏观指标"
          ]
        },
        {
          "row": 34,
          "url": "https://www.discoverhongkong.com/eng/hktb/newsroom/tourism-statistics.html",
          "final_url": "https://www.discoverhongkong.com/eng/hktb/newsroom/tourism-statistics.html",
          "status": 200,
          "content_type": "text/html;charset=utf-8",
          "title": "Tourism Statistics | Hong Kong Tourism Board",
          "bytes": 201968,
          "elapsed_seconds": 1.322,
          "method": "curl_crawler_ua",
          "text_sample": "Tourism Statistics | Hong Kong Tourism Board Search Language - English DiscoverHongKong Back to Menu My Account My Wallet Log out View now Site preferences Go to the site of your registered location to view more offers? Yes Yes Stay here Back to Menu English 简体中文 繁體中文 Language - English About Us Newsroom DiscoverHongKong Back to Menu Corporate Information > Awards and Achievements > Structure and Management > Procurement > Annual Reports > Event Sponsorship Opportunities > Join Us > Racial Equality > Community Engagement > Press Releases > Tourism Statistics > Media Contacts > Image and Video Gallery > Tourism Statistics Visitor Arrivals to Hong Kong in 2026: April March February January For data of 2025 or before, please visit our PartnerNet . Newsroom Tourism Statistics Follow Us Now! Subscribe to our newsletter to receive exclusive updates and offers in your inbox! Subscribe Connect W",
          "evidence_path": "evidence_cache/a0e8dc986eda8a9268c6d9f352a0d021ccdf2b755dafee0b193d73fdd2f75416.txt",
          "content_hash": "a0e8dc986eda8a9268c6d9f352a0d021ccdf2b755dafee0b193d73fdd2f75416",
          "error": "",
          "fetch_attempts": [
            {
              "url": "https://www.discoverhongkong.com/eng/hktb/newsroom/tourism-statistics.html",
              "final_url": "https://www.discoverhongkong.com/eng/hktb/newsroom/tourism-statistics.html",
              "status": 403,
              "method": "httpx",
              "bytes": 5879,
              "text_chars": 16,
              "title": "Just a moment...",
              "error": "",
              "meta_refresh_url": ""
            },
            {
              "url": "https://www.discoverhongkong.com/eng/hktb/newsroom/tourism-statistics.html",
              "final_url": "https://www.discoverhongkong.com/eng/hktb/newsroom/tourism-statistics.html",
              "status": 200,
              "method": "curl_crawler_ua",
              "bytes": 201968,
              "text_chars": 1464,
              "title": "Tourism Statistics | Hong Kong Tourism Board",
              "error": "",
              "meta_refresh_url": "https://www.discoverhongkong.com/r/noscript.html"
            }
          ],
          "source_policy": "allow",
          "source_type": "government_public_info",
          "jurisdiction": "HK",
          "tos_status": "public_information",
          "robots_status": "checked",
          "robots_allowed": true,
          "skip_reason": "",
          "entity_hits": [
            "宏观指标"
          ]
        },
        {
          "row": 34,
          "url": "https://api.worldbank.org/v2/country/HKG/indicator/NY.GDP.MKTP.CD?format=json&per_page=5",
          "final_url": "https://api.worldbank.org/v2/country/HKG/indicator/NY.GDP.MKTP.CD?format=json&per_page=5",
          "status": 200,
          "content_type": "application/json;charset=utf-8",
          "title": "",
          "bytes": 1179,
          "elapsed_seconds": 2.324,
          "method": "httpx",
          "text_sample": "[{\"page\":1,\"pages\":14,\"per_page\":5,\"total\":66,\"sourceid\":\"2\",\"lastupdated\":\"[REDACTED_PHONE_OR_ID]\"},[{\"indicator\":{\"id\":\"NY.GDP.MKTP.CD\",\"value\":\"GDP (current US$)\"},\"country\":{\"id\":\"HK\",\"value\":\"Hong Kong SAR, China\"},\"countryiso3code\":\"HKG\",\"date\":\"2025\",\"value\":null,\"unit\":\"\",\"obs_status\":\"\",\"decimal\":0},{\"indicator\":{\"id\":\"NY.GDP.MKTP.CD\",\"value\":\"GDP (current US$)\"},\"country\":{\"id\":\"HK\",\"value\":\"Hong Kong SAR, China\"},\"countryiso3code\":\"HKG\",\"date\":\"2024\",\"value\":406863396487.342,\"unit\":\"\",\"obs_status\":\"\",\"decimal\":0},{\"indicator\":{\"id\":\"NY.GDP.MKTP.CD\",\"value\":\"GDP (current US$)\"},\"country\":{\"id\":\"HK\",\"value\":\"Hong Kong SAR, China\"},\"countryiso3code\":\"HKG\",\"date\":\"2023\",\"value\":381043026173.935,\"unit\":\"\",\"obs_status\":\"\",\"decimal\":0},{\"indicator\":{\"id\":\"NY.GDP.MKTP.CD\",\"value\":\"GDP (current US$)\"},\"country\":{\"id\":\"HK\",\"value\":\"Hong Kong SAR, China\"},\"countryiso3code\":\"HKG\",\"date\":\"2022\",\"value",
          "evidence_path": "evidence_cache/27bb6625cc0502f86505b076dc4f3a4b0b635d49f9cacbe14b39ac4feb92c6cd.txt",
          "content_hash": "27bb6625cc0502f86505b076dc4f3a4b0b635d49f9cacbe14b39ac4feb92c6cd",
          "error": "",
          "fetch_attempts": [
            {
              "url": "https://api.worldbank.org/v2/country/HKG/indicator/NY.GDP.MKTP.CD?format=json&per_page=5",
              "final_url": "https://api.worldbank.org/v2/country/HKG/indicator/NY.GDP.MKTP.CD?format=json&per_page=5",
              "status": 200,
              "method": "httpx",
              "bytes": 1179,
              "text_chars": 1179,
              "title": "",
              "error": "",
              "meta_refresh_url": ""
            }
          ],
          "source_policy": "allow",
          "source_type": "public_api",
          "jurisdiction": "international",
          "tos_status": "public_api",
          "robots_status": "not_found_allow",
          "robots_allowed": true,
          "skip_reason": "",
          "entity_hits": [
            "宏观指标"
          ]
        },
        {
          "row": 34,
          "url": "https://www.stats.gov.cn/english/",
          "final_url": "https://www.stats.gov.cn/english/",
          "status": 200,
          "content_type": "text/html",
          "title": "National Bureau of Statistics of China",
          "bytes": 24998,
          "elapsed_seconds": 5.081,
          "method": "httpx",
          "text_sample": "National Bureau of Statistics of China Chinese(GB) RSS Organizational Chart Data Communiqués Legal Framework Classifications & Methods Latest Releases International Cooperation Understanding Statistics Agency Communiqué of the 1% National Population Sample Survey in 2025 Statistical data Statistical Database Monthly Data Quarterly Data Annual Data Yearbook Census Data Latest Release More [REDACTED_PHONE_OR_ID] Market Prices of Important Means of Production in Circulation, June 1-10, ... [REDACTED_PHONE_OR_ID] Consumer Price Index in May [REDACTED_PHONE_OR_ID] Industrial Producer Price Indexes in May [REDACTED_PHONE_OR_ID] Market Prices of Important Means of Production in Circulation, May 21-31, ... International Cooperation International Training More More Kang Yi Meets with Director-General of Eurostat and Signs the Administrative Arrangement on Statistical Cooperation On the morning of September 26th, Mr. Kang Yi, commissi",
          "evidence_path": "evidence_cache/9eeb44bfc963eabf5272c1c008d5e1952aac735b4158f10e6d6c09a33703bc41.txt",
          "content_hash": "9eeb44bfc963eabf5272c1c008d5e1952aac735b4158f10e6d6c09a33703bc41",
          "error": "",
          "fetch_attempts": [
            {
              "url": "https://www.stats.gov.cn/english/",
              "final_url": "https://www.stats.gov.cn/english/",
              "status": 200,
              "method": "httpx",
              "bytes": 24998,
              "text_chars": 3170,
              "title": "National Bureau of Statistics of China",
              "error": "",
              "meta_refresh_url": ""
            }
          ],
          "source_policy": "allow",
          "source_type": "government_statistics",
          "jurisdiction": "CN",
          "tos_status": "public_information",
          "robots_status": "not_found_allow",
          "robots_allowed": true,
          "skip_reason": "",
          "entity_hits": [
            "宏观指标"
          ]
        }
      ],
      "confidence_score": 0.3,
      "verification_reason": "The extracted data contains fragments of the source text but is mostly incomplete or erroneous: GDP field has an incomplete URL and garbage text; 进出口 contains irrelevant cookie/newsletter text; 失业率 is missing; 旅游业数据 includes only a tagline. The source text includes actual GDP values, unemployment, and tourism statistics, but the extraction fails to capture them correctly."
    }
  ],
  "entity_missing": [],
  "raw_records": [
    {
      "row": 34,
      "url": "https://www.censtatd.gov.hk/en/scode200.html",
      "final_url": "https://www.censtatd.gov.hk/en/scode200.html",
      "status": 200,
      "content_type": "text/html",
      "title": "Labour Force, Employment and Unemployment",
      "bytes": 26041,
      "elapsed_seconds": 0.641,
      "method": "httpx",
      "text_sample": "Labour Force, Employment and Unemployment Labour Force, Employment and Unemployment Overview Interactive Statistics Press Releases Tables Reports Datasets Feature Articles Statistics in Other Sites Concepts and Methods Overview overview section ( ) ( ) ( ) ( ) Distribution of Composite Employment Estimates by major industry sector (%) (%) (%) Interactive Statistics Interactive Statistics section Press Releases Press Release section Latest Release Date Upcoming Release Date Tables Tables & Charts section Reports Reports section Title Latest Issue Release Date File Download Datasets Datasets section Feature Articles Feature Articles section Statistics in Other Sites Statistics in Other Sites section Study on Earnings Mobility (Labour and Welfare Bureau) Concepts and Methods Concepts and Methods section Feature Articles on Concepts and Methods Feature Articles on Concepts and Methods sectio",
      "evidence_path": "evidence_cache/6bac0b780c2c56d7e32eaa63a2cebccf7750f9b100ec3a93175461ff20930bd7.txt",
      "content_hash": "6bac0b780c2c56d7e32eaa63a2cebccf7750f9b100ec3a93175461ff20930bd7",
      "error": "",
      "fetch_attempts": [
        {
          "url": "https://www.censtatd.gov.hk/en/scode200.html",
          "final_url": "https://www.censtatd.gov.hk/en/scode200.html",
          "status": 200,
          "method": "httpx",
          "bytes": 26041,
          "text_chars": 1069,
          "title": "Labour Force, Employment and Unemployment",
          "error": "",
          "meta_refresh_url": ""
        }
      ],
      "source_policy": "allow",
      "source_type": "government_statistics",
      "jurisdiction": "HK",
      "tos_status": "public_information",
      "robots_status": "checked",
      "robots_allowed": true,
      "skip_reason": "",
      "entity_hits": [
        "宏观指标"
      ]
    },
    {
      "row": 34,
      "url": "https://www.discoverhongkong.com/eng/hktb/newsroom/tourism-statistics.html",
      "final_url": "https://www.discoverhongkong.com/eng/hktb/newsroom/tourism-statistics.html",
      "status": 200,
      "content_type": "text/html;charset=utf-8",
      "title": "Tourism Statistics | Hong Kong Tourism Board",
      "bytes": 201968,
      "elapsed_seconds": 1.322,
      "method": "curl_crawler_ua",
      "text_sample": "Tourism Statistics | Hong Kong Tourism Board Search Language - English DiscoverHongKong Back to Menu My Account My Wallet Log out View now Site preferences Go to the site of your registered location to view more offers? Yes Yes Stay here Back to Menu English 简体中文 繁體中文 Language - English About Us Newsroom DiscoverHongKong Back to Menu Corporate Information > Awards and Achievements > Structure and Management > Procurement > Annual Reports > Event Sponsorship Opportunities > Join Us > Racial Equality > Community Engagement > Press Releases > Tourism Statistics > Media Contacts > Image and Video Gallery > Tourism Statistics Visitor Arrivals to Hong Kong in 2026: April March February January For data of 2025 or before, please visit our PartnerNet . Newsroom Tourism Statistics Follow Us Now! Subscribe to our newsletter to receive exclusive updates and offers in your inbox! Subscribe Connect W",
      "evidence_path": "evidence_cache/a0e8dc986eda8a9268c6d9f352a0d021ccdf2b755dafee0b193d73fdd2f75416.txt",
      "content_hash": "a0e8dc986eda8a9268c6d9f352a0d021ccdf2b755dafee0b193d73fdd2f75416",
      "error": "",
      "fetch_attempts": [
        {
          "url": "https://www.discoverhongkong.com/eng/hktb/newsroom/tourism-statistics.html",
          "final_url": "https://www.discoverhongkong.com/eng/hktb/newsroom/tourism-statistics.html",
          "status": 403,
          "method": "httpx",
          "bytes": 5879,
          "text_chars": 16,
          "title": "Just a moment...",
          "error": "",
          "meta_refresh_url": ""
        },
        {
          "url": "https://www.discoverhongkong.com/eng/hktb/newsroom/tourism-statistics.html",
          "final_url": "https://www.discoverhongkong.com/eng/hktb/newsroom/tourism-statistics.html",
          "status": 200,
          "method": "curl_crawler_ua",
          "bytes": 201968,
          "text_chars": 1464,
          "title": "Tourism Statistics | Hong Kong Tourism Board",
          "error": "",
          "meta_refresh_url": "https://www.discoverhongkong.com/r/noscript.html"
        }
      ],
      "source_policy": "allow",
      "source_type": "government_public_info",
      "jurisdiction": "HK",
      "tos_status": "public_information",
      "robots_status": "checked",
      "robots_allowed": true,
      "skip_reason": "",
      "entity_hits": [
        "宏观指标"
      ]
    },
    {
      "row": 34,
      "url": "https://api.worldbank.org/v2/country/HKG/indicator/NY.GDP.MKTP.CD?format=json&per_page=5",
      "final_url": "https://api.worldbank.org/v2/country/HKG/indicator/NY.GDP.MKTP.CD?format=json&per_page=5",
      "status": 200,
      "content_type": "application/json;charset=utf-8",
      "title": "",
      "bytes": 1179,
      "elapsed_seconds": 2.324,
      "method": "httpx",
      "text_sample": "[{\"page\":1,\"pages\":14,\"per_page\":5,\"total\":66,\"sourceid\":\"2\",\"lastupdated\":\"[REDACTED_PHONE_OR_ID]\"},[{\"indicator\":{\"id\":\"NY.GDP.MKTP.CD\",\"value\":\"GDP (current US$)\"},\"country\":{\"id\":\"HK\",\"value\":\"Hong Kong SAR, China\"},\"countryiso3code\":\"HKG\",\"date\":\"2025\",\"value\":null,\"unit\":\"\",\"obs_status\":\"\",\"decimal\":0},{\"indicator\":{\"id\":\"NY.GDP.MKTP.CD\",\"value\":\"GDP (current US$)\"},\"country\":{\"id\":\"HK\",\"value\":\"Hong Kong SAR, China\"},\"countryiso3code\":\"HKG\",\"date\":\"2024\",\"value\":406863396487.342,\"unit\":\"\",\"obs_status\":\"\",\"decimal\":0},{\"indicator\":{\"id\":\"NY.GDP.MKTP.CD\",\"value\":\"GDP (current US$)\"},\"country\":{\"id\":\"HK\",\"value\":\"Hong Kong SAR, China\"},\"countryiso3code\":\"HKG\",\"date\":\"2023\",\"value\":381043026173.935,\"unit\":\"\",\"obs_status\":\"\",\"decimal\":0},{\"indicator\":{\"id\":\"NY.GDP.MKTP.CD\",\"value\":\"GDP (current US$)\"},\"country\":{\"id\":\"HK\",\"value\":\"Hong Kong SAR, China\"},\"countryiso3code\":\"HKG\",\"date\":\"2022\",\"value",
      "evidence_path": "evidence_cache/27bb6625cc0502f86505b076dc4f3a4b0b635d49f9cacbe14b39ac4feb92c6cd.txt",
      "content_hash": "27bb6625cc0502f86505b076dc4f3a4b0b635d49f9cacbe14b39ac4feb92c6cd",
      "error": "",
      "fetch_attempts": [
        {
          "url": "https://api.worldbank.org/v2/country/HKG/indicator/NY.GDP.MKTP.CD?format=json&per_page=5",
          "final_url": "https://api.worldbank.org/v2/country/HKG/indicator/NY.GDP.MKTP.CD?format=json&per_page=5",
          "status": 200,
          "method": "httpx",
          "bytes": 1179,
          "text_chars": 1179,
          "title": "",
          "error": "",
          "meta_refresh_url": ""
        }
      ],
      "source_policy": "allow",
      "source_type": "public_api",
      "jurisdiction": "international",
      "tos_status": "public_api",
      "robots_status": "not_found_allow",
      "robots_allowed": true,
      "skip_reason": "",
      "entity_hits": [
        "宏观指标"
      ]
    },
    {
      "row": 34,
      "url": "https://www.stats.gov.cn/english/",
      "final_url": "https://www.stats.gov.cn/english/",
      "status": 200,
      "content_type": "text/html",
      "title": "National Bureau of Statistics of China",
      "bytes": 24998,
      "elapsed_seconds": 5.081,
      "method": "httpx",
      "text_sample": "National Bureau of Statistics of China Chinese(GB) RSS Organizational Chart Data Communiqués Legal Framework Classifications & Methods Latest Releases International Cooperation Understanding Statistics Agency Communiqué of the 1% National Population Sample Survey in 2025 Statistical data Statistical Database Monthly Data Quarterly Data Annual Data Yearbook Census Data Latest Release More [REDACTED_PHONE_OR_ID] Market Prices of Important Means of Production in Circulation, June 1-10, ... [REDACTED_PHONE_OR_ID] Consumer Price Index in May [REDACTED_PHONE_OR_ID] Industrial Producer Price Indexes in May [REDACTED_PHONE_OR_ID] Market Prices of Important Means of Production in Circulation, May 21-31, ... International Cooperation International Training More More Kang Yi Meets with Director-General of Eurostat and Signs the Administrative Arrangement on Statistical Cooperation On the morning of September 26th, Mr. Kang Yi, commissi",
      "evidence_path": "evidence_cache/9eeb44bfc963eabf5272c1c008d5e1952aac735b4158f10e6d6c09a33703bc41.txt",
      "content_hash": "9eeb44bfc963eabf5272c1c008d5e1952aac735b4158f10e6d6c09a33703bc41",
      "error": "",
      "fetch_attempts": [
        {
          "url": "https://www.stats.gov.cn/english/",
          "final_url": "https://www.stats.gov.cn/english/",
          "status": 200,
          "method": "httpx",
          "bytes": 24998,
          "text_chars": 3170,
          "title": "National Bureau of Statistics of China",
          "error": "",
          "meta_refresh_url": ""
        }
      ],
      "source_policy": "allow",
      "source_type": "government_statistics",
      "jurisdiction": "CN",
      "tos_status": "public_information",
      "robots_status": "not_found_allow",
      "robots_allowed": true,
      "skip_reason": "",
      "entity_hits": [
        "宏观指标"
      ]
    }
  ],
  "live_fetch_status": "ok",
  "fallback_used": false,
  "fallback_source_file": "",
  "fallback_fields": {},
  "fetched_at": "2026-06-14T10:07:36.182814+00:00",
  "fetched_at_hkt": "2026-06-14T18:07:36.182967+08:00"
}